{
  "name": "atlassian/nexus_rest",
  "version": "0.4.2",
  "summary": "Manage Nexus resources through a REST interface",
  "author": "Atlassian",
  "description": "Manage Nexus repository resources through a REST interface",
  "dependencies": [],
  "tags": ["sonatype", "nexus", "rest"],
  "operatingsystem_support": [
    {
      "operatingsystem": "Ubuntu",
      "operatingsystemrelease": [ "12.04" ]
    }
  ],
  "requirements": [
    {
      "name": "puppet",
      "version_requirement": "3.x"
    }
  ],
  "source": "https://bitbucket.org/atlassian/puppet-module-nexus_rest.git",
  "project_page": "https://bitbucket.org/atlassian/puppet-module-nexus_rest",
  "issues_url": "https://bitbucket.org/atlassian/puppet-module-nexus_rest/issues?status=new&status=open",
  "license": "Apache-2.0"
}
